…
acc_df
```

    ## # A tibble: 50,400 x 6
    ##    week  day_id day    day_type minute activity
    ##    <fct>  <int> <fct>  <fct>     <dbl>    <dbl>
    ##  1 1          1 Friday weekday       1       88
    ##  2 1          1 Friday weekday       2       82
    ##  3 1          1 Friday weekday       3       64
    ##  4 1          1 Friday weekday       4       70
    ##  5 1          1 Friday weekday       5       75
    ##  6 1          1 Friday weekday       6       66
    ##  7 1          1 Friday weekday       7       54
    ##  8 1          1 Friday weekday       8       48
    ##  9 1          1 Friday weekday       9       55
    ## 10 1          1 Friday weekday      10       43
    ## # ... with 50,390 more rows
…
